{
  "shell_port": 35273,
  "iopub_port": 43291,
  "stdin_port": 33293,
  "control_port": 51939,
  "hb_port": 33821,
  "ip": "127.0.0.1",
  "key": "c0999191-e4296055bfb8985cc4d86a63",
  "transport": "tcp",
  "signature_scheme": "hmac-sha256",
  "kernel_name": ""
}